World Hapiness
…
df18

## # A tibble: 156 x 9
##    `Overall rank` `Country or region` Score `GDP per capita` `Social support`
##             <dbl> <chr>               <dbl>            <dbl>            <dbl>
##  1              1 Finland              7.63             1.30             1.59
##  2              2 Norway               7.59             1.46             1.58
##  3              3 Denmark              7.56             1.35             1.59
##  4              4 Iceland              7.50             1.34             1.64
##  5              5 Switzerland          7.49             1.42             1.55
##  6              6 Netherlands          7.44             1.36             1.49
##  7              7 Canada               7.33             1.33             1.53
##  8              8 New Zealand          7.32             1.27             1.60
##  9              9 Sweden               7.31             1.36             1.50
## 10             10 Australia            7.27             1.34             1.57
## #  with 146 more rows, and 4 more variables: Healthy life expectancy <dbl>,
## #   Freedom to make life choices <dbl>, Generosity <dbl>,
## #   Perceptions of corruption <chr>
…
